<?xml version="1.0" encoding="UTF-8"?>
<svg width="26px" height="23px" viewBox="0 0 26 23" version="1.1" xmlns="http://www.w3.org/2000/svg" xmlns:xlink="http://www.w3.org/1999/xlink">
    <!-- Generator: Sketch 52.2 (67145) - http://www.bohemiancoding.com/sketch -->
    <title>Shape</title>
    <desc>Created with Sketch.</desc>
    <g id="basic-elements" stroke="none" stroke-width="1" fill="none" fill-rule="evenodd">
        <g id="tables" transform="translate(-714.000000, -245.000000)" fill="#003349" fill-rule="nonzero">
            <g id="comparison-table" transform="translate(100.000000, 150.000000)">
                <g id="Group-20" transform="translate(0.000000, 67.000000)">
                    <polygon id="Shape" points="617.461883 38.1082714 614 41.7192565 624.123411 51 640 31.0388175 636.004561 28 623.535809 43.6766067"></polygon>
                </g>
            </g>
        </g>
    </g>
</svg>