<?xml version="1.0" encoding="UTF-8"?>
<svg width="401px" height="229px" viewBox="0 0 401 229" version="1.1" xmlns="http://www.w3.org/2000/svg" xmlns:xlink="http://www.w3.org/1999/xlink">
    <!-- Generator: Sketch 51.2 (57519) - http://www.bohemiancoding.com/sketch -->
    <title>sidebar-large</title>
    <desc>Created with Sketch.</desc>
    <defs>
        <rect id="path-1" x="200" y="0" width="200" height="225"></rect>
        <filter x="-2.2%" y="-1.6%" width="103.5%" height="103.1%" filterUnits="objectBoundingBox" id="filter-2">
            <feOffset dx="-1" dy="0" in="SourceAlpha" result="shadowOffsetOuter1"></feOffset>
            <feGaussianBlur stdDeviation="1" in="shadowOffsetOuter1" result="shadowBlurOuter1"></feGaussianBlur>
            <feColorMatrix values="0 0 0 0 0.0784313725   0 0 0 0 0.11372549   0 0 0 0 0.0392156863  0 0 0 0.05 0" type="matrix" in="shadowBlurOuter1"></feColorMatrix>
        </filter>
        <rect id="path-3" x="200" y="0" width="200" height="23.25"></rect>
        <filter x="-0.1%" y="-0.5%" width="100.1%" height="101.1%" filterUnits="objectBoundingBox" id="filter-4">
            <feOffset dx="0" dy="-0.25" in="SourceAlpha" result="shadowOffsetInner1"></feOffset>
            <feComposite in="shadowOffsetInner1" in2="SourceAlpha" operator="arithmetic" k2="-1" k3="1" result="shadowInnerInner1"></feComposite>
            <feColorMatrix values="0 0 0 0 0.8   0 0 0 0 0.839215686   0 0 0 0 0.858823529  0 0 0 1 0" type="matrix" in="shadowInnerInner1"></feColorMatrix>
        </filter>
        <rect id="path-5" x="200" y="210" width="200" height="15"></rect>
        <filter x="-0.8%" y="-10.0%" width="101.5%" height="120.0%" filterUnits="objectBoundingBox" id="filter-6">
            <feOffset dx="0" dy="0" in="SourceAlpha" result="shadowOffsetOuter1"></feOffset>
            <feGaussianBlur stdDeviation="0.5" in="shadowOffsetOuter1" result="shadowBlurOuter1"></feGaussianBlur>
            <feComposite in="shadowBlurOuter1" in2="SourceAlpha" operator="out" result="shadowBlurOuter1"></feComposite>
            <feColorMatrix values="0 0 0 0 0.8   0 0 0 0 0.839215686   0 0 0 0 0.858823529  0 0 0 0.5 0" type="matrix" in="shadowBlurOuter1"></feColorMatrix>
        </filter>
        <filter x="-0.6%" y="-7.5%" width="101.1%" height="115.0%" filterUnits="objectBoundingBox" id="filter-7">
            <feOffset dx="0" dy="-0.25" in="SourceAlpha" result="shadowOffsetInner1"></feOffset>
            <feComposite in="shadowOffsetInner1" in2="SourceAlpha" operator="arithmetic" k2="-1" k3="1" result="shadowInnerInner1"></feComposite>
            <feColorMatrix values="0 0 0 0 0.8   0 0 0 0 0.839215686   0 0 0 0 0.858823529  0 0 0 1 0" type="matrix" in="shadowInnerInner1"></feColorMatrix>
        </filter>
    </defs>
    <g id="sidebar-large" stroke="none" stroke-width="1" fill="none" fill-rule="evenodd">
        <rect fill="#FFFFFF" x="0" y="0" width="401" height="229"></rect>
        <g id="Group-21" transform="translate(0.000000, 2.000000)">
            <rect id="Overlay" fill-opacity="0.6" fill="#00141D" x="0" y="0" width="400" height="225"></rect>
            <g id="Rectangle-2">
                <use fill="black" fill-opacity="1" filter="url(#filter-2)" xlink:href="#path-1"></use>
                <use fill="#F2F5F6" fill-rule="evenodd" xlink:href="#path-1"></use>
            </g>
            <g id="Rectangle">
                <use fill="#FFFFFF" fill-rule="evenodd" xlink:href="#path-3"></use>
                <use fill="black" fill-opacity="1" filter="url(#filter-4)" xlink:href="#path-3"></use>
            </g>
            <path d="M209,8.66 C208.63,8.66 208.46,8.815 208.46,9.045 C208.46,9.8 210.34,9.335 210.34,10.665 C210.34,11.485 209.675,11.81 208.955,11.81 C208.305,11.81 207.62,11.6 207.555,10.66 L208.255,10.555 C208.315,10.905 208.445,11.2 208.975,11.2 C209.295,11.2 209.575,11.09 209.575,10.755 C209.575,10 207.69,10.525 207.69,9.155 C207.69,8.45 208.28,8.065 209.01,8.065 C209.655,8.065 210.245,8.265 210.3,9.125 L209.595,9.205 C209.565,8.865 209.425,8.66 209,8.66 Z M211.535,9.145 L211.535,11.75 L210.78,11.75 L210.78,9.145 L211.535,9.145 Z M211.615,8.345 C211.615,8.635 211.445,8.805 211.16,8.805 C210.87,8.805 210.705,8.635 210.705,8.345 C210.705,8.055 210.87,7.89 211.16,7.89 C211.445,7.89 211.615,8.055 211.615,8.345 Z M214.49,7.975 L214.49,11.75 L213.86,11.75 L213.815,11.495 L213.8,11.49 C213.62,11.69 213.375,11.81 213.03,11.81 C212.42,11.81 212.005,11.435 212.005,10.5 C212.005,9.455 212.565,9.09 213.105,9.09 C213.395,9.09 213.6,9.155 213.765,9.31 L213.765,7.975 L214.49,7.975 Z M213.74,11.03 L213.74,9.835 C213.64,9.76 213.49,9.69 213.32,9.69 C212.94,9.69 212.795,10.025 212.795,10.475 C212.795,10.94 212.94,11.215 213.295,11.215 C213.455,11.215 213.62,11.14 213.74,11.03 Z M216.22,11.81 C215.255,11.81 214.945,11.16 214.945,10.455 C214.945,9.515 215.52,9.09 216.22,9.09 C217.01,9.09 217.34,9.57 217.34,10.295 C217.34,10.38 217.335,10.545 217.325,10.635 L215.74,10.635 C215.755,11.065 215.935,11.225 216.265,11.225 C216.535,11.225 216.64,11.075 216.69,10.855 L217.325,11.01 C217.23,11.495 216.84,11.81 216.22,11.81 Z M215.75,10.155 L216.56,10.155 C216.56,9.78 216.425,9.635 216.18,9.635 C215.965,9.635 215.755,9.775 215.75,10.155 Z M218.44,11.75 L217.805,11.75 L217.805,7.975 L218.545,7.975 L218.545,9.38 C218.755,9.175 219.01,9.09 219.33,9.09 C219.855,9.09 220.29,9.43 220.29,10.39 C220.29,11.41 219.83,11.81 219.205,11.81 C218.885,11.81 218.65,11.69 218.49,11.53 L218.475,11.53 L218.44,11.75 Z M218.555,9.895 L218.555,11.035 C218.65,11.105 218.82,11.205 219.01,11.205 C219.345,11.205 219.495,10.945 219.495,10.41 C219.495,9.995 219.395,9.695 219.035,9.695 C218.855,9.695 218.665,9.795 218.555,9.895 Z M222.815,10.01 L222.815,11.1 C222.815,11.24 222.84,11.3 222.97,11.3 C223.015,11.3 223.06,11.29 223.125,11.27 L223.145,11.705 C223.045,11.755 222.825,11.805 222.665,11.805 C222.365,11.805 222.185,11.72 222.13,11.475 C221.965,11.69 221.715,11.81 221.355,11.81 C220.705,11.81 220.58,11.375 220.58,11.115 C220.58,10.32 221.405,10.2 222.075,10.205 L222.075,10.11 C222.075,9.815 222.035,9.635 221.705,9.635 C221.455,9.635 221.36,9.74 221.31,9.995 L220.67,9.87 C220.75,9.38 221.06,9.09 221.77,9.09 C222.465,9.09 222.815,9.36 222.815,10.01 Z M222.08,11.105 L222.08,10.645 L221.96,10.645 C221.6,10.655 221.34,10.725 221.34,10.99 C221.34,11.14 221.405,11.275 221.645,11.275 C221.825,11.275 222,11.185 222.08,11.105 Z M225.135,9.095 L225.135,9.83 C224.795,9.8 224.46,9.89 224.24,10.065 L224.24,11.75 L223.485,11.75 L223.485,9.145 L224.13,9.145 L224.185,9.555 C224.36,9.3 224.605,9.09 225.005,9.09 C225.045,9.09 225.09,9.095 225.135,9.095 Z M227.915,11.75 L227.14,11.75 L227.14,8.78 L226.075,8.78 L226.075,8.13 L228.97,8.13 L228.97,8.78 L227.915,8.78 L227.915,11.75 Z M230.065,9.145 L230.065,11.75 L229.31,11.75 L229.31,9.145 L230.065,9.145 Z M230.145,8.345 C230.145,8.635 229.975,8.805 229.69,8.805 C229.4,8.805 229.235,8.635 229.235,8.345 C229.235,8.055 229.4,7.89 229.69,7.89 C229.975,7.89 230.145,8.055 230.145,8.345 Z M232.265,11.09 L232.37,11.625 C232.24,11.71 231.935,11.81 231.605,11.81 C231.06,11.81 230.775,11.56 230.775,10.965 L230.775,9.695 L230.385,9.695 L230.385,9.145 L230.775,9.145 L230.775,8.375 L231.53,8.275 L231.53,9.145 L232.22,9.145 L232.22,9.695 L231.53,9.695 L231.53,10.86 C231.53,11.09 231.595,11.21 231.835,11.21 C231.985,11.21 232.165,11.15 232.265,11.09 Z M233.465,7.975 L233.465,11.75 L232.71,11.75 L232.71,7.975 L233.465,7.975 Z M235.195,11.81 C234.23,11.81 233.92,11.16 233.92,10.455 C233.92,9.515 234.495,9.09 235.195,9.09 C235.985,9.09 236.315,9.57 236.315,10.295 C236.315,10.38 236.31,10.545 236.3,10.635 L234.715,10.635 C234.73,11.065 234.91,11.225 235.24,11.225 C235.51,11.225 235.615,11.075 235.665,10.855 L236.3,11.01 C236.205,11.495 235.815,11.81 235.195,11.81 Z M234.725,10.155 L235.535,10.155 C235.535,9.78 235.4,9.635 235.155,9.635 C234.94,9.635 234.73,9.775 234.725,10.155 Z" id="Sidebar-Title" fill-opacity="0.85" fill="#000000"></path>
            <path d="M209.253418,17.5852051 C209.253418,17.8050955 209.173666,17.9765619 209.01416,18.0996094 C208.854654,18.2226569 208.638185,18.2841797 208.364746,18.2841797 C208.068521,18.2841797 207.840658,18.2460128 207.681152,18.1696777 L207.681152,17.8894043 C207.783692,17.9326988 207.895344,17.9668781 208.016113,17.9919434 C208.136882,18.0170086 208.25651,18.029541 208.375,18.029541 C208.568686,18.029541 208.714518,17.9927982 208.8125,17.9193115 C208.910482,17.8458248 208.959473,17.7435716 208.959473,17.6125488 C208.959473,17.5259599 208.942098,17.4550377 208.907349,17.3997803 C208.872599,17.3445228 208.814494,17.2935386 208.733032,17.2468262 C208.65157,17.2001137 208.52767,17.1471357 208.361328,17.0878906 C208.128905,17.0047196 207.96285,16.9061692 207.863159,16.7922363 C207.763468,16.6783035 207.713623,16.5296233 207.713623,16.3461914 C207.713623,16.1536449 207.785969,16.0004075 207.930664,15.8864746 C208.075359,15.7725417 208.266763,15.7155762 208.504883,15.7155762 C208.753256,15.7155762 208.981688,15.7611486 209.190186,15.8522949 L209.099609,16.1052246 C208.893391,16.0186356 208.692872,15.9753418 208.498047,15.9753418 C208.344238,15.9753418 208.22404,16.0083818 208.137451,16.0744629 C208.050862,16.140544 208.007568,16.2322585 208.007568,16.3496094 C208.007568,16.4361983 208.023519,16.5071205 208.05542,16.5623779 C208.087321,16.6176354 208.141154,16.6683347 208.216919,16.7144775 C208.292684,16.7606203 208.408609,16.8116045 208.564697,16.8674316 C208.826743,16.9608566 209.007039,17.061116 209.105591,17.1682129 C209.204143,17.2753098 209.253418,17.4143058 209.253418,17.5852051 Z M209.988281,16.3769531 L209.988281,17.592041 C209.988281,17.744711 210.02303,17.8586422 210.092529,17.9338379 C210.162028,18.0090336 210.270833,18.0466309 210.418945,18.0466309 C210.61491,18.0466309 210.758178,17.9930832 210.848755,17.8859863 C210.939332,17.7788894 210.984619,17.6040051 210.984619,17.3613281 L210.984619,16.3769531 L211.268311,16.3769531 L211.268311,18.25 L211.03418,18.25 L210.993164,17.9987793 L210.977783,17.9987793 C210.919677,18.0910649 210.839071,18.1617022 210.735962,18.2106934 C210.632853,18.2596845 210.515219,18.2841797 210.383057,18.2841797 C210.155191,18.2841797 209.984579,18.2300624 209.871216,18.1218262 C209.757853,18.01359 209.701172,17.8404146 209.701172,17.6022949 L209.701172,16.3769531 L209.988281,16.3769531 Z M212.741455,16.3461914 C212.98755,16.3461914 213.17867,16.4302156 213.314819,16.5982666 C213.450969,16.7663176 213.519043,17.0041489 213.519043,17.3117676 C213.519043,17.6193863 213.450399,17.8583569 213.31311,18.0286865 C213.175821,18.1990162 212.985271,18.2841797 212.741455,18.2841797 C212.619547,18.2841797 212.508179,18.2616783 212.407349,18.2166748 C212.306518,18.1716713 212.221924,18.1024581 212.153564,18.0090332 L212.133057,18.0090332 L212.073242,18.25 L211.869873,18.25 L211.869873,15.5908203 L212.153564,15.5908203 L212.153564,16.2368164 C212.153564,16.3815111 212.149007,16.5113927 212.139893,16.6264648 L212.153564,16.6264648 C212.285727,16.439615 212.481688,16.3461914 212.741455,16.3461914 Z M212.700439,16.5837402 C212.506754,16.5837402 212.367188,16.6392817 212.281738,16.7503662 C212.196289,16.8614508 212.153564,17.0485827 212.153564,17.3117676 C212.153564,17.5749525 212.197428,17.7632237 212.285156,17.8765869 C212.372885,17.9899501 212.51359,18.0466309 212.707275,18.0466309 C212.881593,18.0466309 213.011474,17.9831142 213.096924,17.8560791 C213.182373,17.729044 213.225098,17.5464693 213.225098,17.3083496 C213.225098,17.0645333 213.182373,16.8828131 213.096924,16.7631836 C213.011474,16.6435541 212.879314,16.5837402 212.700439,16.5837402 Z M214.619629,18.0500488 C214.669759,18.0500488 214.71818,18.0463461 214.764893,18.0389404 C214.811605,18.0315348 214.848633,18.0238444 214.875977,18.0158691 L214.875977,18.2329102 C214.845215,18.2477214 214.799927,18.259969 214.740112,18.2696533 C214.680298,18.2793376 214.626465,18.2841797 214.578613,18.2841797 C214.216307,18.2841797 214.035156,18.093345 214.035156,17.7116699 L214.035156,16.5974121 L213.766846,16.5974121 L213.766846,16.4606934 L214.035156,16.3427734 L214.154785,15.9428711 L214.318848,15.9428711 L214.318848,16.3769531 L214.862305,16.3769531 L214.862305,16.5974121 L214.318848,16.5974121 L214.318848,17.699707 C214.318848,17.8125006 214.345621,17.8990882 214.39917,17.9594727 C214.452718,18.0198571 214.526204,18.0500488 214.619629,18.0500488 Z M215.533936,18.25 L215.250244,18.25 L215.250244,16.3769531 L215.533936,16.3769531 L215.533936,18.25 Z M215.226318,15.8693848 C215.226318,15.804443 215.242269,15.7568768 215.27417,15.7266846 C215.306071,15.6964924 215.345947,15.6813965 215.393799,15.6813965 C215.439372,15.6813965 215.478678,15.6967772 215.511719,15.7275391 C215.544759,15.7583009 215.561279,15.8055824 215.561279,15.8693848 C215.561279,15.9331872 215.544759,15.9807534 215.511719,16.012085 C215.478678,16.0434165 215.439372,16.059082 215.393799,16.059082 C215.345947,16.059082 215.306071,16.0434165 215.27417,16.012085 C215.242269,15.9807534 215.226318,15.9331872 215.226318,15.8693848 Z M216.740479,18.0500488 C216.790609,18.0500488 216.83903,18.0463461 216.885742,18.0389404 C216.932455,18.0315348 216.969482,18.0238444 216.996826,18.0158691 L216.996826,18.2329102 C216.966064,18.2477214 216.920777,18.259969 216.860962,18.2696533 C216.801147,18.2793376 216.747315,18.2841797 216.699463,18.2841797 C216.337156,18.2841797 216.156006,18.093345 216.156006,17.7116699 L216.156006,16.5974121 L215.887695,16.5974121 L215.887695,16.4606934 L216.156006,16.3427734 L216.275635,15.9428711 L216.439697,15.9428711 L216.439697,16.3769531 L216.983154,16.3769531 L216.983154,16.5974121 L216.439697,16.5974121 L216.439697,17.699707 C216.439697,17.8125006 216.466471,17.8990882 216.52002,17.9594727 C216.573568,18.0198571 216.647054,18.0500488 216.740479,18.0500488 Z M217.654785,18.25 L217.371094,18.25 L217.371094,15.5908203 L217.654785,15.5908203 L217.654785,18.25 Z M219.047607,18.2841797 C218.770751,18.2841797 218.552288,18.1998706 218.392212,18.03125 C218.232136,17.8626294 218.1521,17.6285008 218.1521,17.3288574 C218.1521,17.0269353 218.22644,16.7871103 218.375122,16.609375 C218.523804,16.4316397 218.723469,16.3427734 218.974121,16.3427734 C219.208823,16.3427734 219.394531,16.4199618 219.53125,16.5743408 C219.667969,16.7287198 219.736328,16.9323718 219.736328,17.1853027 L219.736328,17.3647461 L218.446045,17.3647461 C218.451742,17.5846365 218.507283,17.7515457 218.612671,17.8654785 C218.718059,17.9794114 218.866454,18.036377 219.057861,18.036377 C219.259522,18.036377 219.458902,17.9942224 219.656006,17.9099121 L219.656006,18.1628418 C219.555745,18.2061363 219.460897,18.2371825 219.37146,18.2559814 C219.282023,18.2747804 219.174073,18.2841797 219.047607,18.2841797 Z M218.970703,16.5803223 C218.820312,16.5803223 218.700399,16.6293127 218.610962,16.7272949 C218.521525,16.8252772 218.468831,16.9608553 218.452881,17.1340332 L219.432129,17.1340332 C219.432129,16.9551586 219.392253,16.8181564 219.3125,16.7230225 C219.232747,16.6278885 219.118816,16.5803223 218.970703,16.5803223 Z" id="Subtitle" fill-opacity="0.74" fill="#000000"></path>
            <path d="M389.753116,11.1483974 L388.175603,9.57150317 C388.080665,9.47660192 387.921272,9.47530476 387.823761,9.5727768 C387.725571,9.67092839 387.725681,9.82771201 387.822487,9.92448065 L389.4,11.5013749 L387.825335,13.0754222 C387.728453,13.1722671 387.728281,13.3291126 387.826471,13.4272642 C387.923982,13.5247362 388.083438,13.5233757 388.178451,13.4283996 L389.753116,11.8543524 L391.318694,13.4193171 C391.413632,13.5142184 391.573025,13.5155156 391.670536,13.4180435 C391.768726,13.3198919 391.768616,13.1631083 391.67181,13.0663397 L390.106231,11.5013749 L391.677415,9.93080684 C391.774298,9.83396188 391.774469,9.67711639 391.676279,9.5789648 C391.578769,9.48149276 391.419313,9.48285326 391.324299,9.57782936 L389.753116,11.1483974 L389.753116,11.1483974 Z" id="icon-cross" fill-opacity="0.55" fill="#000000"></path>
            <g id="Rectangle">
                <use fill="black" fill-opacity="1" filter="url(#filter-6)" xlink:href="#path-5"></use>
                <use fill="#FFFFFF" fill-rule="evenodd" xlink:href="#path-5"></use>
                <use fill="black" fill-opacity="1" filter="url(#filter-7)" xlink:href="#path-5"></use>
                <rect stroke="#CCD6DB" stroke-width="0.25" stroke-linejoin="square" x="200.125" y="210.125" width="199.75" height="14.75"></rect>
            </g>
            <rect id="Rectangle-3" fill="#008657" x="370.75" y="212.5" width="21.25" height="10"></rect>
            <path d="M379.114014,218.306152 C379.114014,218.531739 379.032838,218.709472 378.870483,218.839355 C378.708129,218.969239 378.482261,219.03418 378.192871,219.03418 C377.926268,219.03418 377.690431,218.98405 377.485352,218.883789 L377.485352,218.391602 C377.653972,218.466797 377.796671,218.519775 377.913452,218.550537 C378.030233,218.581299 378.137044,218.59668 378.233887,218.59668 C378.350098,218.59668 378.439249,218.574463 378.501343,218.530029 C378.563436,218.485595 378.594482,218.419515 378.594482,218.331787 C378.594482,218.282796 378.580811,218.239217 378.553467,218.20105 C378.526123,218.162882 378.485962,218.126139 378.432983,218.09082 C378.380005,218.055501 378.272055,217.999105 378.109131,217.921631 C377.956461,217.849853 377.84196,217.780925 377.765625,217.714844 C377.68929,217.648763 377.628337,217.571859 377.582764,217.484131 C377.537191,217.396403 377.514404,217.293865 377.514404,217.176514 C377.514404,216.955484 377.589314,216.781739 377.739136,216.655273 C377.888957,216.528808 378.096027,216.465576 378.360352,216.465576 C378.490235,216.465576 378.614135,216.480957 378.732056,216.511719 C378.849976,216.542481 378.973307,216.585774 379.102051,216.641602 L378.931152,217.053467 C378.797851,216.998779 378.687623,216.960612 378.600464,216.938965 C378.513305,216.917318 378.427572,216.906494 378.343262,216.906494 C378.243001,216.906494 378.166097,216.92985 378.112549,216.976562 C378.059,217.023275 378.032227,217.084228 378.032227,217.159424 C378.032227,217.206136 378.04305,217.246867 378.064697,217.281616 C378.086345,217.316366 378.120809,217.349975 378.168091,217.382446 C378.215373,217.414917 378.32731,217.473307 378.503906,217.557617 C378.737469,217.669271 378.897542,217.781209 378.984131,217.893433 C379.07072,218.005656 379.114014,218.143228 379.114014,218.306152 Z M380.739258,219 L380.638428,218.740234 L380.624756,218.740234 C380.537028,218.850749 380.446737,218.927368 380.353882,218.970093 C380.261027,219.012818 380.139975,219.03418 379.990723,219.03418 C379.807291,219.03418 379.662883,218.981771 379.557495,218.876953 C379.452107,218.772135 379.399414,218.622885 379.399414,218.429199 C379.399414,218.226399 379.470336,218.076864 379.612183,217.980591 C379.754029,217.884318 379.967935,217.831055 380.253906,217.820801 L380.585449,217.810547 L380.585449,217.726807 C380.585449,217.533121 380.486329,217.436279 380.288086,217.436279 C380.135416,217.436279 379.955974,217.482421 379.749756,217.574707 L379.577148,217.222656 C379.797039,217.107584 380.040852,217.050049 380.308594,217.050049 C380.564943,217.050049 380.761474,217.105875 380.898193,217.217529 C381.034913,217.329184 381.103271,217.498941 381.103271,217.726807 L381.103271,219 L380.739258,219 Z M380.585449,218.114746 L380.383789,218.121582 C380.232258,218.126139 380.119467,218.153483 380.04541,218.203613 C379.971354,218.253744 379.934326,218.330078 379.934326,218.432617 C379.934326,218.579591 380.018635,218.653076 380.187256,218.653076 C380.308025,218.653076 380.404581,218.618327 380.476929,218.548828 C380.549276,218.479329 380.585449,218.387045 380.585449,218.271973 L380.585449,218.114746 Z M382.094482,219 L381.366455,217.089355 L381.911621,217.089355 L382.280762,218.177979 C382.321778,218.315837 382.347412,218.446288 382.357666,218.569336 L382.36792,218.569336 C382.373617,218.45996 382.399251,218.329509 382.444824,218.177979 L382.812256,217.089355 L383.357422,217.089355 L382.629395,219 L382.094482,219 Z M384.422119,217.424316 C384.311604,217.424316 384.225017,217.45935 384.162354,217.529419 C384.09969,217.599488 384.063802,217.698893 384.054688,217.827637 L384.786133,217.827637 C384.783854,217.698893 384.750244,217.599488 384.685303,217.529419 C384.620361,217.45935 384.532634,217.424316 384.422119,217.424316 Z M384.495605,219.03418 C384.187987,219.03418 383.947592,218.949301 383.774414,218.779541 C383.601236,218.609781 383.514648,218.369386 383.514648,218.05835 C383.514648,217.738198 383.594685,217.490683 383.754761,217.315796 C383.914836,217.140909 384.136148,217.053467 384.418701,217.053467 C384.688722,217.053467 384.898925,217.13037 385.049316,217.28418 C385.199708,217.437989 385.274902,217.650471 385.274902,217.921631 L385.274902,218.174561 L384.042725,218.174561 C384.048421,218.322673 384.092285,218.438313 384.174316,218.521484 C384.256348,218.604655 384.371419,218.64624 384.519531,218.64624 C384.634603,218.64624 384.743408,218.634277 384.845947,218.610352 C384.948487,218.586426 385.055582,218.548259 385.167236,218.49585 L385.167236,218.89917 C385.07609,218.944743 384.978679,218.978638 384.875,219.000854 C384.771321,219.023071 384.644858,219.03418 384.495605,219.03418 Z" id="Save" fill="#FFFFFF"></path>
            <path d="M356.460693,216.906494 C356.261311,216.906494 356.106934,216.981404 355.997559,217.131226 C355.888183,217.281047 355.833496,217.489826 355.833496,217.757568 C355.833496,218.3147 356.04256,218.593262 356.460693,218.593262 C356.63615,218.593262 356.848632,218.549398 357.098145,218.46167 L357.098145,218.906006 C356.893065,218.991456 356.664064,219.03418 356.411133,219.03418 C356.047687,219.03418 355.769695,218.923951 355.577148,218.703491 C355.384602,218.483031 355.28833,218.166587 355.28833,217.75415 C355.28833,217.494383 355.335612,217.266806 355.430176,217.071411 C355.52474,216.876016 355.660603,216.726197 355.837769,216.621948 C356.014934,216.5177 356.222574,216.465576 356.460693,216.465576 C356.70337,216.465576 356.947183,216.524251 357.192139,216.641602 L357.02124,217.072266 C356.927815,217.027832 356.833822,216.989095 356.739258,216.956055 C356.644694,216.923014 356.55184,216.906494 356.460693,216.906494 Z M358.802002,219 L358.701172,218.740234 L358.6875,218.740234 C358.599772,218.850749 358.509481,218.927368 358.416626,218.970093 C358.323771,219.012818 358.202719,219.03418 358.053467,219.03418 C357.870035,219.03418 357.725627,218.981771 357.620239,218.876953 C357.514851,218.772135 357.462158,218.622885 357.462158,218.429199 C357.462158,218.226399 357.53308,218.076864 357.674927,217.980591 C357.816773,217.884318 358.030679,217.831055 358.31665,217.820801 L358.648193,217.810547 L358.648193,217.726807 C358.648193,217.533121 358.549073,217.436279 358.35083,217.436279 C358.19816,217.436279 358.018718,217.482421 357.8125,217.574707 L357.639893,217.222656 C357.859783,217.107584 358.103596,217.050049 358.371338,217.050049 C358.627687,217.050049 358.824218,217.105875 358.960938,217.217529 C359.097657,217.329184 359.166016,217.498941 359.166016,217.726807 L359.166016,219 L358.802002,219 Z M358.648193,218.114746 L358.446533,218.121582 C358.295002,218.126139 358.182211,218.153483 358.108154,218.203613 C358.034098,218.253744 357.99707,218.330078 357.99707,218.432617 C357.99707,218.579591 358.081379,218.653076 358.25,218.653076 C358.370769,218.653076 358.467325,218.618327 358.539673,218.548828 C358.61202,218.479329 358.648193,218.387045 358.648193,218.271973 L358.648193,218.114746 Z M361.466309,219 L360.945068,219 L360.945068,217.884033 C360.945068,217.746174 360.920573,217.642782 360.871582,217.573853 C360.822591,217.504923 360.744548,217.470459 360.637451,217.470459 C360.491617,217.470459 360.386231,217.519165 360.321289,217.616577 C360.256347,217.71399 360.223877,217.875487 360.223877,218.101074 L360.223877,219 L359.702637,219 L359.702637,217.089355 L360.10083,217.089355 L360.170898,217.33374 L360.199951,217.33374 C360.258057,217.241455 360.338094,217.171672 360.440063,217.12439 C360.542033,217.077108 360.657958,217.053467 360.787842,217.053467 C361.010011,217.053467 361.178629,217.113565 361.293701,217.233765 C361.408773,217.353964 361.466309,217.527424 361.466309,217.75415 L361.466309,219 Z M362.778809,219.03418 C362.184079,219.03418 361.886719,218.707767 361.886719,218.054932 C361.886719,217.730223 361.96761,217.482138 362.129395,217.310669 C362.291179,217.1392 362.523029,217.053467 362.824951,217.053467 C363.045981,217.053467 363.244221,217.096761 363.419678,217.18335 L363.265869,217.58667 C363.183837,217.553629 363.107504,217.526571 363.036865,217.505493 C362.966227,217.484416 362.89559,217.473877 362.824951,217.473877 C362.553791,217.473877 362.418213,217.666421 362.418213,218.051514 C362.418213,218.425213 362.553791,218.612061 362.824951,218.612061 C362.925212,218.612061 363.018066,218.598674 363.103516,218.571899 C363.188965,218.545125 363.274414,218.503255 363.359863,218.446289 L363.359863,218.892334 C363.275553,218.945882 363.190389,218.98291 363.10437,219.003418 C363.018351,219.023926 362.909831,219.03418 362.778809,219.03418 Z M364.59375,217.424316 C364.483235,217.424316 364.396647,217.45935 364.333984,217.529419 C364.271321,217.599488 364.235433,217.698893 364.226318,217.827637 L364.957764,217.827637 C364.955485,217.698893 364.921875,217.599488 364.856934,217.529419 C364.791992,217.45935 364.704265,217.424316 364.59375,217.424316 Z M364.667236,219.03418 C364.359618,219.03418 364.119223,218.949301 363.946045,218.779541 C363.772867,218.609781 363.686279,218.369386 363.686279,218.05835 C363.686279,217.738198 363.766316,217.490683 363.926392,217.315796 C364.086467,217.140909 364.307779,217.053467 364.590332,217.053467 C364.860353,217.053467 365.070556,217.13037 365.220947,217.28418 C365.371339,217.437989 365.446533,217.650471 365.446533,217.921631 L365.446533,218.174561 L364.214355,218.174561 C364.220052,218.322673 364.263916,218.438313 364.345947,218.521484 C364.427979,218.604655 364.543049,218.64624 364.691162,218.64624 C364.806234,218.64624 364.915039,218.634277 365.017578,218.610352 C365.120118,218.586426 365.227213,218.548259 365.338867,218.49585 L365.338867,218.89917 C365.247721,218.944743 365.15031,218.978638 365.046631,219.000854 C364.942952,219.023071 364.816488,219.03418 364.667236,219.03418 Z M366.391602,219 L365.870361,219 L365.870361,216.34082 L366.391602,216.34082 L366.391602,219 Z" id="Cancel" fill="#008657"></path>
        </g>
    </g>
</svg>